^C:\USERS\RSHONA\SOURCE\REPOS\HOMEWORK_16\DEBUG\HOMEWORK_16.OBJ
C:\USERS\RSHONA\SOURCE\REPOS\HOMEWORK_16\DEBUG\HOMEWORK_16.EXE
C:\USERS\RSHONA\SOURCE\REPOS\HOMEWORK_16\DEBUG\HOMEWORK_16.ILK
C:\USERS\RSHONA\SOURCE\REPOS\HOMEWORK_16\DEBUG\HOMEWORK_16.PDB
